{
    "btagging" : {
        "doubles": [],
        "floats": [
            "dips20211116_pu",
            "dips20211116_pb",
            "dips20211116_pc"
        ],
        "chars": []
    },
    "jet" : {
        "ints": [
            "HadronConeExclTruthLabelID",
            "HadronConeExclExtendedTruthLabelID"
        ],
        "floats": [
            "pt",
            "eta",
            "mass",
            "energy",
            "relativeDeltaRToVRJet",
            "deltaRToVRJet"
        ]
    }
}

