# signal samples
mc20_13TeV.801471.Py8EG_A14NNPDF23LO_VHbb_flatmasspT.deriv.DAOD_FTAG1.e8441_s3681_r13144_p5488
mc20_13TeV.801472.Py8EG_A14NNPDF23LO_VHcc_flatmasspT.deriv.DAOD_FTAG1.e8441_s3681_r13144_p5488

# high pT top
mc20_13TeV.426345.Pythia8EvtGen_A14NNPDF23LO_Zprime_tt_flatpT.deriv.DAOD_FTAG1.e6880_s3681_r13144_p5488
mc20_13TeV.426345.Pythia8EvtGen_A14NNPDF23LO_Zprime_tt_flatpT.deriv.DAOD_FTAG1.e6880_s3681_r13145_p5488

# low pT top
#mc20_13TeV.410470.PhPy8EG_A14_ttbar_hdamp258p75_nonallhad.deriv.DAOD_FTAG1.e6337_s3681_r13144_p5488
#mc20_13TeV.410470.PhPy8EG_A14_ttbar_hdamp258p75_nonallhad.deriv.DAOD_FTAG1.e6337_s3681_r13145_p5488
#mc20_13TeV.410470.PhPy8EG_A14_ttbar_hdamp258p75_nonallhad.deriv.DAOD_FTAG1.e6337_s3681_r13167_p5488

# other (small) top slices (keep ones that are high pT)
#mc20_13TeV.301322.Pythia8EvtGen_A14NNPDF23LO_zprime400_tt.deriv.DAOD_FTAG1.e4061_s3126_r13145_p5488
#mc20_13TeV.301323.Pythia8EvtGen_A14NNPDF23LO_zprime500_tt.deriv.DAOD_FTAG1.e4061_s3126_r13145_p5488
#mc20_13TeV.301324.Pythia8EvtGen_A14NNPDF23LO_zprime750_tt.deriv.DAOD_FTAG1.e4061_s3126_r13145_p5488
#mc20_13TeV.301325.Pythia8EvtGen_A14NNPDF23LO_zprime1000_tt.deriv.DAOD_FTAG1.e4061_s3126_r13145_p5488
#mc20_13TeV.301326.Pythia8EvtGen_A14NNPDF23LO_zprime1250_tt.deriv.DAOD_FTAG1.e4061_s3126_r13145_p5488
#mc20_13TeV.301327.Pythia8EvtGen_A14NNPDF23LO_zprime1500_tt.deriv.DAOD_FTAG1.e4061_s3126_r13145_p5488
mc20_13TeV.301328.Pythia8EvtGen_A14NNPDF23LO_zprime1750_tt.deriv.DAOD_FTAG1.e4061_s3126_r13145_p5488
mc20_13TeV.301329.Pythia8EvtGen_A14NNPDF23LO_zprime2000_tt.deriv.DAOD_FTAG1.e4061_s3126_r13145_p5488
mc20_13TeV.301330.Pythia8EvtGen_A14NNPDF23LO_zprime2250_tt.deriv.DAOD_FTAG1.e4061_s3126_r13145_p5488
mc20_13TeV.301331.Pythia8EvtGen_A14NNPDF23LO_zprime2500_tt.deriv.DAOD_FTAG1.e4061_s3126_r13145_p5488
mc20_13TeV.301332.Pythia8EvtGen_A14NNPDF23LO_zprime2750_tt.deriv.DAOD_FTAG1.e4061_s3126_r13145_p5488
mc20_13TeV.301333.Pythia8EvtGen_A14NNPDF23LO_zprime3000_tt.deriv.DAOD_FTAG1.e3723_s3126_r13145_p5488
mc20_13TeV.301334.Pythia8EvtGen_A14NNPDF23LO_zprime4000_tt.deriv.DAOD_FTAG1.e3723_s3126_r13145_p5488
mc20_13TeV.301335.Pythia8EvtGen_A14NNPDF23LO_zprime5000_tt.deriv.DAOD_FTAG1.e3723_s3126_r13145_p5488

# dijet slices
mc20_13TeV.364703.Pythia8EvtGen_A14NNPDF23LO_jetjet_JZ3WithSW.deriv.DAOD_FTAG1.e7142_s3681_r13144_p5488
mc20_13TeV.364704.Pythia8EvtGen_A14NNPDF23LO_jetjet_JZ4WithSW.deriv.DAOD_FTAG1.e7142_s3681_r13144_p5488
mc20_13TeV.364705.Pythia8EvtGen_A14NNPDF23LO_jetjet_JZ5WithSW.deriv.DAOD_FTAG1.e7142_s3681_r13144_p5488
# for now these are probably not needed
#mc20_13TeV.364703.Pythia8EvtGen_A14NNPDF23LO_jetjet_JZ3WithSW.deriv.DAOD_FTAG1.e7142_s3681_r13145_p5488
#mc20_13TeV.364703.Pythia8EvtGen_A14NNPDF23LO_jetjet_JZ3WithSW.deriv.DAOD_FTAG1.e7142_s3681_r13167_p5488
#mc20_13TeV.364704.Pythia8EvtGen_A14NNPDF23LO_jetjet_JZ4WithSW.deriv.DAOD_FTAG1.e7142_s3681_r13145_p5488
#mc20_13TeV.364704.Pythia8EvtGen_A14NNPDF23LO_jetjet_JZ4WithSW.deriv.DAOD_FTAG1.e7142_s3681_r13167_p5488
#mc20_13TeV.364705.Pythia8EvtGen_A14NNPDF23LO_jetjet_JZ5WithSW.deriv.DAOD_FTAG1.e7142_s3681_r13145_p5488
#mc20_13TeV.364705.Pythia8EvtGen_A14NNPDF23LO_jetjet_JZ5WithSW.deriv.DAOD_FTAG1.e7142_s3681_r13167_p5488
#mc20_13TeV.364706.Pythia8EvtGen_A14NNPDF23LO_jetjet_JZ6WithSW.deriv.DAOD_FTAG1.e7142_s3681_r13144_p5488
#mc20_13TeV.364706.Pythia8EvtGen_A14NNPDF23LO_jetjet_JZ6WithSW.deriv.DAOD_FTAG1.e7142_s3681_r13145_p5488
#mc20_13TeV.364706.Pythia8EvtGen_A14NNPDF23LO_jetjet_JZ6WithSW.deriv.DAOD_FTAG1.e7142_s3681_r13167_p5488
#mc20_13TeV.364707.Pythia8EvtGen_A14NNPDF23LO_jetjet_JZ7WithSW.deriv.DAOD_FTAG1.e7142_s3681_r13144_p5488
#mc20_13TeV.364707.Pythia8EvtGen_A14NNPDF23LO_jetjet_JZ7WithSW.deriv.DAOD_FTAG1.e7142_s3681_r13145_p5488
#mc20_13TeV.364707.Pythia8EvtGen_A14NNPDF23LO_jetjet_JZ7WithSW.deriv.DAOD_FTAG1.e7142_s3681_r13167_p5488
#mc20_13TeV.364708.Pythia8EvtGen_A14NNPDF23LO_jetjet_JZ8WithSW.deriv.DAOD_FTAG1.e7142_s3681_r13144_p5488
#mc20_13TeV.364708.Pythia8EvtGen_A14NNPDF23LO_jetjet_JZ8WithSW.deriv.DAOD_FTAG1.e7142_s3681_r13145_p5488
#mc20_13TeV.364708.Pythia8EvtGen_A14NNPDF23LO_jetjet_JZ8WithSW.deriv.DAOD_FTAG1.e7142_s3681_r13167_p5488
#mc20_13TeV.364709.Pythia8EvtGen_A14NNPDF23LO_jetjet_JZ9WithSW.deriv.DAOD_FTAG1.e7142_s3681_r13144_p5488
#mc20_13TeV.364709.Pythia8EvtGen_A14NNPDF23LO_jetjet_JZ9WithSW.deriv.DAOD_FTAG1.e7142_s3681_r13145_p5488
#mc20_13TeV.364709.Pythia8EvtGen_A14NNPDF23LO_jetjet_JZ9WithSW.deriv.DAOD_FTAG1.e7142_s3681_r13167_p5488
#mc20_13TeV.364710.Pythia8EvtGen_A14NNPDF23LO_jetjet_JZ10WithSW.deriv.DAOD_FTAG1.e7142_s3681_r13144_p5488
#mc20_13TeV.364710.Pythia8EvtGen_A14NNPDF23LO_jetjet_JZ10WithSW.deriv.DAOD_FTAG1.e7142_s3681_r13145_p5488
#mc20_13TeV.364710.Pythia8EvtGen_A14NNPDF23LO_jetjet_JZ10WithSW.deriv.DAOD_FTAG1.e7142_s3681_r13167_p5488

# other samples
#mc20_13TeV.514722.MGPy8EG_A14N23LO_RS_G_hh_bbbb_c10_M300.deriv.DAOD_FTAG1.e8470_s3681_r13144_p5488
#mc20_13TeV.514722.MGPy8EG_A14N23LO_RS_G_hh_bbbb_c10_M300.deriv.DAOD_FTAG1.e8470_s3681_r13145_p5488
#mc20_13TeV.514722.MGPy8EG_A14N23LO_RS_G_hh_bbbb_c10_M300.deriv.DAOD_FTAG1.e8470_s3681_r13167_p5488
#mc20_13TeV.514723.MGPy8EG_A14N23LO_RS_G_hh_bbbb_c10_M400.deriv.DAOD_FTAG1.e8470_s3681_r13144_p5488
#mc20_13TeV.514723.MGPy8EG_A14N23LO_RS_G_hh_bbbb_c10_M400.deriv.DAOD_FTAG1.e8470_s3681_r13145_p5488
#mc20_13TeV.514723.MGPy8EG_A14N23LO_RS_G_hh_bbbb_c10_M400.deriv.DAOD_FTAG1.e8470_s3681_r13167_p5488
#mc20_13TeV.514724.MGPy8EG_A14N23LO_RS_G_hh_bbbb_c10_M500.deriv.DAOD_FTAG1.e8470_s3681_r13144_p5488
#mc20_13TeV.514724.MGPy8EG_A14N23LO_RS_G_hh_bbbb_c10_M500.deriv.DAOD_FTAG1.e8470_s3681_r13145_p5488
#mc20_13TeV.514724.MGPy8EG_A14N23LO_RS_G_hh_bbbb_c10_M500.deriv.DAOD_FTAG1.e8470_s3681_r13167_p5488
#mc20_13TeV.514725.MGPy8EG_A14N23LO_RS_G_hh_bbbb_c10_M600.deriv.DAOD_FTAG1.e8470_s3681_r13144_p5488
#mc20_13TeV.514725.MGPy8EG_A14N23LO_RS_G_hh_bbbb_c10_M600.deriv.DAOD_FTAG1.e8470_s3681_r13145_p5488
#mc20_13TeV.514725.MGPy8EG_A14N23LO_RS_G_hh_bbbb_c10_M600.deriv.DAOD_FTAG1.e8470_s3681_r13167_p5488
#mc20_13TeV.514726.MGPy8EG_A14N23LO_RS_G_hh_bbbb_c10_M700.deriv.DAOD_FTAG1.e8470_s3681_r13144_p5488
#mc20_13TeV.514726.MGPy8EG_A14N23LO_RS_G_hh_bbbb_c10_M700.deriv.DAOD_FTAG1.e8470_s3681_r13145_p5488
#mc20_13TeV.514726.MGPy8EG_A14N23LO_RS_G_hh_bbbb_c10_M700.deriv.DAOD_FTAG1.e8470_s3681_r13167_p5488
#mc20_13TeV.514727.MGPy8EG_A14N23LO_RS_G_hh_bbbb_c10_M800.deriv.DAOD_FTAG1.e8470_s3681_r13144_p5488
#mc20_13TeV.514727.MGPy8EG_A14N23LO_RS_G_hh_bbbb_c10_M800.deriv.DAOD_FTAG1.e8470_s3681_r13145_p5488
#mc20_13TeV.514727.MGPy8EG_A14N23LO_RS_G_hh_bbbb_c10_M800.deriv.DAOD_FTAG1.e8470_s3681_r13167_p5488
#mc20_13TeV.514728.MGPy8EG_A14N23LO_RS_G_hh_bbbb_c10_M900.deriv.DAOD_FTAG1.e8470_s3681_r13144_p5488
#mc20_13TeV.514728.MGPy8EG_A14N23LO_RS_G_hh_bbbb_c10_M900.deriv.DAOD_FTAG1.e8470_s3681_r13145_p5488
#mc20_13TeV.514728.MGPy8EG_A14N23LO_RS_G_hh_bbbb_c10_M900.deriv.DAOD_FTAG1.e8470_s3681_r13167_p5488
#mc20_13TeV.514729.MGPy8EG_A14N23LO_RS_G_hh_bbbb_c10_M1000.deriv.DAOD_FTAG1.e8470_s3681_r13144_p5488
#mc20_13TeV.514729.MGPy8EG_A14N23LO_RS_G_hh_bbbb_c10_M1000.deriv.DAOD_FTAG1.e8470_s3681_r13145_p5488
#mc20_13TeV.514729.MGPy8EG_A14N23LO_RS_G_hh_bbbb_c10_M1000.deriv.DAOD_FTAG1.e8470_s3681_r13167_p5488
#mc20_13TeV.514730.MGPy8EG_A14N23LO_RS_G_hh_bbbb_c10_M1100.deriv.DAOD_FTAG1.e8470_s3681_r13144_p5488
#mc20_13TeV.514730.MGPy8EG_A14N23LO_RS_G_hh_bbbb_c10_M1100.deriv.DAOD_FTAG1.e8470_s3681_r13145_p5488
#mc20_13TeV.514730.MGPy8EG_A14N23LO_RS_G_hh_bbbb_c10_M1100.deriv.DAOD_FTAG1.e8470_s3681_r13167_p5488
#mc20_13TeV.514731.MGPy8EG_A14N23LO_RS_G_hh_bbbb_c10_M1200.deriv.DAOD_FTAG1.e8470_s3681_r13144_p5488
#mc20_13TeV.514731.MGPy8EG_A14N23LO_RS_G_hh_bbbb_c10_M1200.deriv.DAOD_FTAG1.e8470_s3681_r13145_p5488
#mc20_13TeV.514731.MGPy8EG_A14N23LO_RS_G_hh_bbbb_c10_M1200.deriv.DAOD_FTAG1.e8470_s3681_r13167_p5488
#mc20_13TeV.514732.MGPy8EG_A14N23LO_RS_G_hh_bbbb_c10_M1300.deriv.DAOD_FTAG1.e8470_s3681_r13144_p5488
#mc20_13TeV.514732.MGPy8EG_A14N23LO_RS_G_hh_bbbb_c10_M1300.deriv.DAOD_FTAG1.e8470_s3681_r13145_p5488
#mc20_13TeV.514732.MGPy8EG_A14N23LO_RS_G_hh_bbbb_c10_M1300.deriv.DAOD_FTAG1.e8470_s3681_r13167_p5488
#mc20_13TeV.514733.MGPy8EG_A14N23LO_RS_G_hh_bbbb_c10_M1400.deriv.DAOD_FTAG1.e8470_s3681_r13144_p5488
#mc20_13TeV.514733.MGPy8EG_A14N23LO_RS_G_hh_bbbb_c10_M1400.deriv.DAOD_FTAG1.e8470_s3681_r13145_p5488
#mc20_13TeV.514733.MGPy8EG_A14N23LO_RS_G_hh_bbbb_c10_M1400.deriv.DAOD_FTAG1.e8470_s3681_r13167_p5488
#mc20_13TeV.514734.MGPy8EG_A14N23LO_RS_G_hh_bbbb_c10_M1500.deriv.DAOD_FTAG1.e8470_s3681_r13144_p5488
#mc20_13TeV.514734.MGPy8EG_A14N23LO_RS_G_hh_bbbb_c10_M1500.deriv.DAOD_FTAG1.e8470_s3681_r13145_p5488
#mc20_13TeV.514734.MGPy8EG_A14N23LO_RS_G_hh_bbbb_c10_M1500.deriv.DAOD_FTAG1.e8470_s3681_r13167_p5488
#mc20_13TeV.514735.MGPy8EG_A14N23LO_RS_G_hh_bbbb_c10_M1600.deriv.DAOD_FTAG1.e8470_s3681_r13144_p5488
#mc20_13TeV.514735.MGPy8EG_A14N23LO_RS_G_hh_bbbb_c10_M1600.deriv.DAOD_FTAG1.e8470_s3681_r13145_p5488
#mc20_13TeV.514735.MGPy8EG_A14N23LO_RS_G_hh_bbbb_c10_M1600.deriv.DAOD_FTAG1.e8470_s3681_r13167_p5488
#mc20_13TeV.514736.MGPy8EG_A14N23LO_RS_G_hh_bbbb_c10_M1800.deriv.DAOD_FTAG1.e8470_s3681_r13144_p5488
#mc20_13TeV.514736.MGPy8EG_A14N23LO_RS_G_hh_bbbb_c10_M1800.deriv.DAOD_FTAG1.e8470_s3681_r13145_p5488
#mc20_13TeV.514736.MGPy8EG_A14N23LO_RS_G_hh_bbbb_c10_M1800.deriv.DAOD_FTAG1.e8470_s3681_r13167_p5488
#mc20_13TeV.514737.MGPy8EG_A14N23LO_RS_G_hh_bbbb_c10_M2000.deriv.DAOD_FTAG1.e8470_s3681_r13144_p5488
#mc20_13TeV.514737.MGPy8EG_A14N23LO_RS_G_hh_bbbb_c10_M2000.deriv.DAOD_FTAG1.e8470_s3681_r13145_p5488
#mc20_13TeV.514737.MGPy8EG_A14N23LO_RS_G_hh_bbbb_c10_M2000.deriv.DAOD_FTAG1.e8470_s3681_r13167_p5488
#mc20_13TeV.514738.MGPy8EG_A14N23LO_RS_G_hh_bbbb_c10_M2250.deriv.DAOD_FTAG1.e8470_s3681_r13144_p5488
#mc20_13TeV.514738.MGPy8EG_A14N23LO_RS_G_hh_bbbb_c10_M2250.deriv.DAOD_FTAG1.e8470_s3681_r13145_p5488
#mc20_13TeV.514738.MGPy8EG_A14N23LO_RS_G_hh_bbbb_c10_M2250.deriv.DAOD_FTAG1.e8470_s3681_r13167_p5488
#mc20_13TeV.514739.MGPy8EG_A14N23LO_RS_G_hh_bbbb_c10_M2500.deriv.DAOD_FTAG1.e8470_s3681_r13144_p5488
#mc20_13TeV.514739.MGPy8EG_A14N23LO_RS_G_hh_bbbb_c10_M2500.deriv.DAOD_FTAG1.e8470_s3681_r13145_p5488
#mc20_13TeV.514739.MGPy8EG_A14N23LO_RS_G_hh_bbbb_c10_M2500.deriv.DAOD_FTAG1.e8470_s3681_r13167_p5488
#mc20_13TeV.514740.MGPy8EG_A14N23LO_RS_G_hh_bbbb_c10_M2750.deriv.DAOD_FTAG1.e8470_s3681_r13144_p5488
#mc20_13TeV.514740.MGPy8EG_A14N23LO_RS_G_hh_bbbb_c10_M2750.deriv.DAOD_FTAG1.e8470_s3681_r13145_p5488
#mc20_13TeV.514740.MGPy8EG_A14N23LO_RS_G_hh_bbbb_c10_M2750.deriv.DAOD_FTAG1.e8470_s3681_r13167_p5488
#mc20_13TeV.514741.MGPy8EG_A14N23LO_RS_G_hh_bbbb_c10_M3000.deriv.DAOD_FTAG1.e8470_s3681_r13144_p5488
#mc20_13TeV.514741.MGPy8EG_A14N23LO_RS_G_hh_bbbb_c10_M3000.deriv.DAOD_FTAG1.e8470_s3681_r13145_p5488
#mc20_13TeV.514741.MGPy8EG_A14N23LO_RS_G_hh_bbbb_c10_M3000.deriv.DAOD_FTAG1.e8470_s3681_r13167_p5488
#mc20_13TeV.514933.MGPy8EG_A14N23LO_RS_G_hh_cccc_c10_M300.deriv.DAOD_FTAG1.e8470_s3681_r13144_p5488
#mc20_13TeV.514933.MGPy8EG_A14N23LO_RS_G_hh_cccc_c10_M300.deriv.DAOD_FTAG1.e8470_s3681_r13145_p5488
#mc20_13TeV.514933.MGPy8EG_A14N23LO_RS_G_hh_cccc_c10_M300.deriv.DAOD_FTAG1.e8470_s3681_r13167_p5488
#mc20_13TeV.514934.MGPy8EG_A14N23LO_RS_G_hh_cccc_c10_M400.deriv.DAOD_FTAG1.e8470_s3681_r13144_p5488
#mc20_13TeV.514934.MGPy8EG_A14N23LO_RS_G_hh_cccc_c10_M400.deriv.DAOD_FTAG1.e8470_s3681_r13145_p5488
#mc20_13TeV.514934.MGPy8EG_A14N23LO_RS_G_hh_cccc_c10_M400.deriv.DAOD_FTAG1.e8470_s3681_r13167_p5488
#mc20_13TeV.514935.MGPy8EG_A14N23LO_RS_G_hh_cccc_c10_M500.deriv.DAOD_FTAG1.e8470_s3681_r13144_p5488
#mc20_13TeV.514935.MGPy8EG_A14N23LO_RS_G_hh_cccc_c10_M500.deriv.DAOD_FTAG1.e8470_s3681_r13145_p5488
#mc20_13TeV.514935.MGPy8EG_A14N23LO_RS_G_hh_cccc_c10_M500.deriv.DAOD_FTAG1.e8470_s3681_r13167_p5488
#mc20_13TeV.514936.MGPy8EG_A14N23LO_RS_G_hh_cccc_c10_M600.deriv.DAOD_FTAG1.e8470_s3681_r13144_p5488
#mc20_13TeV.514936.MGPy8EG_A14N23LO_RS_G_hh_cccc_c10_M600.deriv.DAOD_FTAG1.e8470_s3681_r13145_p5488
#mc20_13TeV.514936.MGPy8EG_A14N23LO_RS_G_hh_cccc_c10_M600.deriv.DAOD_FTAG1.e8470_s3681_r13167_p5488
#mc20_13TeV.514937.MGPy8EG_A14N23LO_RS_G_hh_cccc_c10_M700.deriv.DAOD_FTAG1.e8470_s3681_r13144_p5488
#mc20_13TeV.514937.MGPy8EG_A14N23LO_RS_G_hh_cccc_c10_M700.deriv.DAOD_FTAG1.e8470_s3681_r13145_p5488
#mc20_13TeV.514937.MGPy8EG_A14N23LO_RS_G_hh_cccc_c10_M700.deriv.DAOD_FTAG1.e8470_s3681_r13167_p5488
#mc20_13TeV.514938.MGPy8EG_A14N23LO_RS_G_hh_cccc_c10_M800.deriv.DAOD_FTAG1.e8470_s3681_r13144_p5488
#mc20_13TeV.514938.MGPy8EG_A14N23LO_RS_G_hh_cccc_c10_M800.deriv.DAOD_FTAG1.e8470_s3681_r13145_p5488
#mc20_13TeV.514938.MGPy8EG_A14N23LO_RS_G_hh_cccc_c10_M800.deriv.DAOD_FTAG1.e8470_s3681_r13167_p5488
#mc20_13TeV.514939.MGPy8EG_A14N23LO_RS_G_hh_cccc_c10_M900.deriv.DAOD_FTAG1.e8470_s3681_r13144_p5488
#mc20_13TeV.514939.MGPy8EG_A14N23LO_RS_G_hh_cccc_c10_M900.deriv.DAOD_FTAG1.e8470_s3681_r13145_p5488
#mc20_13TeV.514939.MGPy8EG_A14N23LO_RS_G_hh_cccc_c10_M900.deriv.DAOD_FTAG1.e8470_s3681_r13167_p5488
#mc20_13TeV.514940.MGPy8EG_A14N23LO_RS_G_hh_cccc_c10_M1000.deriv.DAOD_FTAG1.e8470_s3681_r13144_p5488
#mc20_13TeV.514940.MGPy8EG_A14N23LO_RS_G_hh_cccc_c10_M1000.deriv.DAOD_FTAG1.e8470_s3681_r13145_p5488
#mc20_13TeV.514940.MGPy8EG_A14N23LO_RS_G_hh_cccc_c10_M1000.deriv.DAOD_FTAG1.e8470_s3681_r13167_p5488
#mc20_13TeV.514941.MGPy8EG_A14N23LO_RS_G_hh_cccc_c10_M1100.deriv.DAOD_FTAG1.e8470_s3681_r13144_p5488
#mc20_13TeV.514941.MGPy8EG_A14N23LO_RS_G_hh_cccc_c10_M1100.deriv.DAOD_FTAG1.e8470_s3681_r13145_p5488
#mc20_13TeV.514941.MGPy8EG_A14N23LO_RS_G_hh_cccc_c10_M1100.deriv.DAOD_FTAG1.e8470_s3681_r13167_p5488
#mc20_13TeV.514942.MGPy8EG_A14N23LO_RS_G_hh_cccc_c10_M1200.deriv.DAOD_FTAG1.e8470_s3681_r13144_p5488
#mc20_13TeV.514942.MGPy8EG_A14N23LO_RS_G_hh_cccc_c10_M1200.deriv.DAOD_FTAG1.e8470_s3681_r13145_p5488
#mc20_13TeV.514942.MGPy8EG_A14N23LO_RS_G_hh_cccc_c10_M1200.deriv.DAOD_FTAG1.e8470_s3681_r13167_p5488
#mc20_13TeV.514943.MGPy8EG_A14N23LO_RS_G_hh_cccc_c10_M1300.deriv.DAOD_FTAG1.e8470_s3681_r13144_p5488
#mc20_13TeV.514943.MGPy8EG_A14N23LO_RS_G_hh_cccc_c10_M1300.deriv.DAOD_FTAG1.e8470_s3681_r13145_p5488
#mc20_13TeV.514943.MGPy8EG_A14N23LO_RS_G_hh_cccc_c10_M1300.deriv.DAOD_FTAG1.e8470_s3681_r13167_p5488
#mc20_13TeV.514944.MGPy8EG_A14N23LO_RS_G_hh_cccc_c10_M1400.deriv.DAOD_FTAG1.e8470_s3681_r13144_p5488
#mc20_13TeV.514944.MGPy8EG_A14N23LO_RS_G_hh_cccc_c10_M1400.deriv.DAOD_FTAG1.e8470_s3681_r13145_p5488
#mc20_13TeV.514944.MGPy8EG_A14N23LO_RS_G_hh_cccc_c10_M1400.deriv.DAOD_FTAG1.e8470_s3681_r13167_p5488
#mc20_13TeV.514945.MGPy8EG_A14N23LO_RS_G_hh_cccc_c10_M1500.deriv.DAOD_FTAG1.e8470_s3681_r13144_p5488
#mc20_13TeV.514945.MGPy8EG_A14N23LO_RS_G_hh_cccc_c10_M1500.deriv.DAOD_FTAG1.e8470_s3681_r13145_p5488
#mc20_13TeV.514945.MGPy8EG_A14N23LO_RS_G_hh_cccc_c10_M1500.deriv.DAOD_FTAG1.e8470_s3681_r13167_p5488
#mc20_13TeV.514946.MGPy8EG_A14N23LO_RS_G_hh_cccc_c10_M1600.deriv.DAOD_FTAG1.e8470_s3681_r13144_p5488
#mc20_13TeV.514946.MGPy8EG_A14N23LO_RS_G_hh_cccc_c10_M1600.deriv.DAOD_FTAG1.e8470_s3681_r13145_p5488
#mc20_13TeV.514946.MGPy8EG_A14N23LO_RS_G_hh_cccc_c10_M1600.deriv.DAOD_FTAG1.e8470_s3681_r13167_p5488
#mc20_13TeV.514947.MGPy8EG_A14N23LO_RS_G_hh_cccc_c10_M1800.deriv.DAOD_FTAG1.e8470_s3681_r13144_p5488
#mc20_13TeV.514947.MGPy8EG_A14N23LO_RS_G_hh_cccc_c10_M1800.deriv.DAOD_FTAG1.e8470_s3681_r13145_p5488
#mc20_13TeV.514947.MGPy8EG_A14N23LO_RS_G_hh_cccc_c10_M1800.deriv.DAOD_FTAG1.e8470_s3681_r13167_p5488
#mc20_13TeV.514948.MGPy8EG_A14N23LO_RS_G_hh_cccc_c10_M2000.deriv.DAOD_FTAG1.e8470_s3681_r13144_p5488
#mc20_13TeV.514948.MGPy8EG_A14N23LO_RS_G_hh_cccc_c10_M2000.deriv.DAOD_FTAG1.e8470_s3681_r13145_p5488
#mc20_13TeV.514948.MGPy8EG_A14N23LO_RS_G_hh_cccc_c10_M2000.deriv.DAOD_FTAG1.e8470_s3681_r13167_p5488
#mc20_13TeV.514949.MGPy8EG_A14N23LO_RS_G_hh_cccc_c10_M2250.deriv.DAOD_FTAG1.e8470_s3681_r13144_p5488
#mc20_13TeV.514949.MGPy8EG_A14N23LO_RS_G_hh_cccc_c10_M2250.deriv.DAOD_FTAG1.e8470_s3681_r13145_p5488
#mc20_13TeV.514949.MGPy8EG_A14N23LO_RS_G_hh_cccc_c10_M2250.deriv.DAOD_FTAG1.e8470_s3681_r13167_p5488
#mc20_13TeV.514950.MGPy8EG_A14N23LO_RS_G_hh_cccc_c10_M2500.deriv.DAOD_FTAG1.e8470_s3681_r13144_p5488
#mc20_13TeV.514950.MGPy8EG_A14N23LO_RS_G_hh_cccc_c10_M2500.deriv.DAOD_FTAG1.e8470_s3681_r13145_p5488
#mc20_13TeV.514950.MGPy8EG_A14N23LO_RS_G_hh_cccc_c10_M2500.deriv.DAOD_FTAG1.e8470_s3681_r13167_p5488
#mc20_13TeV.514951.MGPy8EG_A14N23LO_RS_G_hh_cccc_c10_M2750.deriv.DAOD_FTAG1.e8470_s3681_r13144_p5488
#mc20_13TeV.514951.MGPy8EG_A14N23LO_RS_G_hh_cccc_c10_M2750.deriv.DAOD_FTAG1.e8470_s3681_r13145_p5488
#mc20_13TeV.514951.MGPy8EG_A14N23LO_RS_G_hh_cccc_c10_M2750.deriv.DAOD_FTAG1.e8470_s3681_r13167_p5488
#mc20_13TeV.514952.MGPy8EG_A14N23LO_RS_G_hh_cccc_c10_M3000.deriv.DAOD_FTAG1.e8470_s3681_r13144_p5488
#mc20_13TeV.514952.MGPy8EG_A14N23LO_RS_G_hh_cccc_c10_M3000.deriv.DAOD_FTAG1.e8470_s3681_r13145_p5488
#mc20_13TeV.514952.MGPy8EG_A14N23LO_RS_G_hh_cccc_c10_M3000.deriv.DAOD_FTAG1.e8470_s3681_r13167_p5488
